ℹ Loading packager
 [1] ".onLoad: parameter ‘libname’ may not be used"                                                                                                                                     
 [2] ".onLoad: parameter ‘pkgname’ may not be used"                                                                                                                                     
 [3] "add_desc_package: parameter ‘pkg’ changed by assignment (/home/qwer/git/cyclops/fvafrcu/packager/R/devtools.R:192)"                                                               
 [4] "add_detach : prepend_detach_to_all_codes: parameter ‘x’ changed by assignment (/home/qwer/git/cyclops/fvafrcu/packager/R/makelist.R:228)"                                         
 [5] "add_github_url_to_desc : <anonymous>: parameter ‘e’ may not be used"                                                                                                              
 [6] "add_log: local variable ‘fat’ used as function with no apparent local function definition (/home/qwer/git/cyclops/fvafrcu/packager/R/makelist.R:235)"                             
 [7] "build_manual: parameter ‘output_directory’ changed by assignment (/home/qwer/git/cyclops/fvafrcu/packager/R/build_manual.R:27-30)"                                                
 [8] "check_dep_version: local variable ‘compare’ used as function with no apparent local function definition (/home/qwer/git/cyclops/fvafrcu/packager/R/devtools.R:110)"               
 [9] "check_suggested: parameter ‘compare’ changed by assignment (/home/qwer/git/cyclops/fvafrcu/packager/R/devtools.R:506-511)"                                                        
[10] "check_suggested: parameter ‘version’ changed by assignment (/home/qwer/git/cyclops/fvafrcu/packager/R/devtools.R:505-515)"                                                        
[11] "convert_package_vignettes: parameter ‘path’ changed by assignment (/home/qwer/git/cyclops/fvafrcu/packager/R/convert_vignette.R:52)"                                              
[12] "cran_comments: parameter ‘pkg’ changed by assignment (/home/qwer/git/cyclops/fvafrcu/packager/R/devtools.R:292)"                                                                  
[13] "create_package_help: parameter ‘description’ changed by assignment (/home/qwer/git/cyclops/fvafrcu/packager/R/internal.R:27-33)"                                                  
[14] "create_package_help: parameter ‘details’ changed by assignment (/home/qwer/git/cyclops/fvafrcu/packager/R/internal.R:30-32)"                                                      
[15] "create_package_help: parameter ‘title’ changed by assignment (/home/qwer/git/cyclops/fvafrcu/packager/R/internal.R:26)"                                                           
[16] "extract_vignette_codes: parameter ‘path’ may not be used"                                                                                                                         
[17] "get_git_url: parameter ‘type’ changed by assignment (/home/qwer/git/cyclops/fvafrcu/packager/R/internal.R:222)"                                                                   
[18] "get_gitlab_info : <anonymous>: parameter ‘e’ may not be used"                                                                                                                     
[19] "get_gitlab_info: local variable ‘info’ used as function with no apparent local function definition (/home/qwer/git/cyclops/fvafrcu/packager/R/cran_comments.R:271)"               
[20] "get_gitlab_log: parameter ‘private_token’ changed by assignment (/home/qwer/git/cyclops/fvafrcu/packager/R/gitlab.R:54-76)"                                                       
[21] "get_news : <anonymous>: parameter ‘e’ may not be used"                                                                                                                            
[22] "get_package_makelist: local variable ‘fat’ used as function with no apparent local function definition (/home/qwer/git/cyclops/fvafrcu/packager/R/makelist.R:18)"                 
[23] "get_package_makelist: local variable ‘frt’ used as function with no apparent local function definition (/home/qwer/git/cyclops/fvafrcu/packager/R/makelist.R:19)"                 
[24] "get_remote_url: parameter ‘discover’ may not be used"                                                                                                                             
[25] "git_add : <anonymous>: parameter ‘e’ may not be used"                                                                                                                             
[26] "git_tag : <anonymous>: parameter ‘e’ may not be used"                                                                                                                             
[27] "highlight_string: parameter ‘message’ may not be used"                                                                                                                            
[28] "info: parameter ‘session’ changed by assignment (/home/qwer/git/cyclops/fvafrcu/packager/R/cran_comments.R:260-261)"                                                              
[29] "install_deps: local variable ‘is_version_sufficient’ used as function with no apparent local function definition (/home/qwer/git/cyclops/fvafrcu/packager/R/install_deps.R:31-33)"
[30] "install_deps: local variable ‘spsm’ used as function with no apparent local function definition (/home/qwer/git/cyclops/fvafrcu/packager/R/install_deps.R:22)"                    
[31] "install_packages: parameter ‘quiet’ changed by assignment (/home/qwer/git/cyclops/fvafrcu/packager/R/remotes_modified.R:32-34)"                                                   
[32] "install_packages: parameter ‘type’ changed by assignment (/home/qwer/git/cyclops/fvafrcu/packager/R/remotes_modified.R:29-31)"                                                    
[33] "is_package : <anonymous>: parameter ‘e’ may not be used"                                                                                                                          
[34] "maintainer: parameter ‘pkg’ changed by assignment (/home/qwer/git/cyclops/fvafrcu/packager/R/devtools.R:310)"                                                                     
[35] "mark_lints : set_mark: parameter ‘x’ changed by assignment (/home/qwer/git/cyclops/fvafrcu/packager/R/various.R:112-115)"                                                         
[36] "mark_lints: parameter ‘x’ changed by assignment (/home/qwer/git/cyclops/fvafrcu/packager/R/various.R:118-121)"                                                                    
[37] "package_skeleton: local variable ‘d’ assigned but may not be used (/home/qwer/git/cyclops/fvafrcu/packager/R/package_skeleton.R:26)"                                              
[38] "print_lint: local variable ‘color’ used as function with no apparent local function definition (/home/qwer/git/cyclops/fvafrcu/packager/R/lintr_modified.R:18-20)"                
[39] "print_lints : set_mark: parameter ‘x’ changed by assignment (/home/qwer/git/cyclops/fvafrcu/packager/R/various.R:112-115)"                                                        
[40] "print_lints: parameter ‘x’ changed by assignment (/home/qwer/git/cyclops/fvafrcu/packager/R/various.R:118-121)"                                                                   
[41] "provide_cran_comments : <anonymous>: parameter ‘e’ may not be used"                                                                                                               
[42] "provide_cran_comments: parameter ‘check_log’ may not be used"                                                                                                                     
[43] "provide_cran_comments: parameter ‘name’ changed by assignment (/home/qwer/git/cyclops/fvafrcu/packager/R/cran_comments.R:47-60)"                                                  
[44] "safe_install_packages: local variable ‘i.p’ used as function with no apparent local function definition (/home/qwer/git/cyclops/fvafrcu/packager/R/remotes_modified.R:16)"        
[45] "set_desc_url: parameter ‘url’ changed by assignment (/home/qwer/git/cyclops/fvafrcu/packager/R/description.R:161)"                                                                
[46] "strip_off_attributes: parameter ‘x’ changed by assignment"                                                                                                                        
[47] "strip_slashes: parameter ‘x’ changed by assignment (/home/qwer/git/cyclops/fvafrcu/packager/R/devtools.R:8)"                                                                      
[48] "update_description: parameter ‘author_at_r’ changed by assignment (/home/qwer/git/cyclops/fvafrcu/packager/R/internal.R:64-78)"                                                   
[49] "update_description: parameter ‘description’ changed by assignment (/home/qwer/git/cyclops/fvafrcu/packager/R/internal.R:82-87)"                                                   
[50] "upload_cran: parameter ‘pkg’ changed by assignment (/home/qwer/git/cyclops/fvafrcu/packager/R/upload_cran.R:3)"                                                                   
[51] "use_build_ignore: parameter ‘files’ changed by assignment (/home/qwer/git/cyclops/fvafrcu/packager/R/devtools.R:61)"                                                              
[52] "use_build_ignore: parameter ‘pkg’ changed by assignment (/home/qwer/git/cyclops/fvafrcu/packager/R/devtools.R:58)"                                                                
[53] "use_dependency: parameter ‘min_version’ changed by assignment (/home/qwer/git/cyclops/fvafrcu/packager/R/usethis.R:63-65)"                                                        
[54] "use_dependency: parameter ‘type’ changed by assignment (/home/qwer/git/cyclops/fvafrcu/packager/R/usethis.R:58)"                                                                  
[55] "use_directory: parameter ‘pkg’ changed by assignment (/home/qwer/git/cyclops/fvafrcu/packager/R/devtools.R:82)"                                                                   
[56] "use_git_ignore: parameter ‘path’ changed by assignment (/home/qwer/git/cyclops/fvafrcu/packager/R/devtools.R:493-496)"                                                            
[57] "use_intro: parameter ‘details’ changed by assignment (/home/qwer/git/cyclops/fvafrcu/packager/R/devtools.R:424)"                                                                  
[58] "use_news_md: parameter ‘pkg’ changed by assignment (/home/qwer/git/cyclops/fvafrcu/packager/R/devtools.R:415)"                                                                    
[59] "use_readme_rmd : <anonymous>: parameter ‘e’ may not be used"                                                                                                                      
[60] "use_runit: parameter ‘ignore’ may not be used"                                                                                                                                    
[61] "use_runit: parameter ‘source_package’ may not be used"                                                                                                                            
[62] "use_template: parameter ‘pkg’ changed by assignment (/home/qwer/git/cyclops/fvafrcu/packager/R/various.R:52)"                                                                     
[63] "version_spec: parameter ‘x’ changed by assignment (/home/qwer/git/cyclops/fvafrcu/packager/R/usethis.R:52)"                                                                       
[64] "write_dcf: parameter ‘desc’ changed by assignment (/home/qwer/git/cyclops/fvafrcu/packager/R/devtools.R:222)"                                                                     
